{
    "page":1,
    "per_page":5,
    "total":13,
    "total_pages":3,
    "data":[
      {
        "id":1,
        "email":"george.bluth@reqres.in",
        "first_name":"George",
        "last_name":"Bluth",
        "avatar":"data:image/png;base64,iVBORw0KGgoAAAANSUhEUgAAAJYAAACWBAMAAADOL2zRAAAAGFBMVEXMzMyWlpbFxcW3t7eqqqq+vr6xsbGjo6NdFKDtAAAACXBIWXMAAA7EAAAOxAGVKw4bAAAAWElEQVRoge3SUQmAQBRE0WXRAC+C22AjbBcL2P9HQwwick6ACwPTGgAAAADfcFSuNYOtlWv1yrW2XKuvVGs/r0q1noG/b/UxRvATTUtLS0tLSwsAAADgTTdZSAdIz1EiEwAAAABJRU5ErkJggg=="
      },
      {
        "id":2,
        "email":"janet.weaver@reqres.in",
        "first_name":"Janet",
        "last_name":"Weaver",
        "avatar":"data:image/png;base64,iVBORw0KGgoAAAANSUhEUgAAAJYAAACWBAMAAADOL2zRAAAAGFBMVEXMzMyWlpbFxcW3t7eqqqq+vr6xsbGjo6NdFKDtAAAACXBIWXMAAA7EAAAOxAGVKw4bAAAAWElEQVRoge3SUQmAQBRE0WXRAC+C22AjbBcL2P9HQwwick6ACwPTGgAAAADfcFSuNYOtlWv1yrW2XKuvVGs/r0q1noG/b/UxRvATTUtLS0tLSwsAAADgTTdZSAdIz1EiEwAAAABJRU5ErkJggg=="
      },
      {
        "id":3,
        "email":"emma.wong@reqres.in",
        "first_name":"Emma",
        "last_name":"Wong",
        "avatar":"data:image/png;base64,iVBORw0KGgoAAAANSUhEUgAAAJYAAACWBAMAAADOL2zRAAAAGFBMVEXMzMyWlpbFxcW3t7eqqqq+vr6xsbGjo6NdFKDtAAAACXBIWXMAAA7EAAAOxAGVKw4bAAAAWElEQVRoge3SUQmAQBRE0WXRAC+C22AjbBcL2P9HQwwick6ACwPTGgAAAADfcFSuNYOtlWv1yrW2XKuvVGs/r0q1noG/b/UxRvATTUtLS0tLSwsAAADgTTdZSAdIz1EiEwAAAABJRU5ErkJggg=="
      },
      {
        "id":4,
        "email":"eve.holt@reqres.in",
        "first_name":"Eve",
        "last_name":"Holt",
        "avatar":"data:image/png;base64,iVBORw0KGgoAAAANSUhEUgAAAJYAAACWBAMAAADOL2zRAAAAGFBMVEXMzMyWlpbFxcW3t7eqqqq+vr6xsbGjo6NdFKDtAAAACXBIWXMAAA7EAAAOxAGVKw4bAAAAWElEQVRoge3SUQmAQBRE0WXRAC+C22AjbBcL2P9HQwwick6ACwPTGgAAAADfcFSuNYOtlWv1yrW2XKuvVGs/r0q1noG/b/UxRvATTUtLS0tLSwsAAADgTTdZSAdIz1EiEwAAAABJRU5ErkJggg=="
      },
      {
        "id":5,
        "email":"charles.morris@reqres.in",
        "first_name":"Charles",
        "last_name":"Morris",
        "avatar":"data:image/png;base64,iVBORw0KGgoAAAANSUhEUgAAAJYAAACWBAMAAADOL2zRAAAAGFBMVEXMzMyWlpbFxcW3t7eqqqq+vr6xsbGjo6NdFKDtAAAACXBIWXMAAA7EAAAOxAGVKw4bAAAAWElEQVRoge3SUQmAQBRE0WXRAC+C22AjbBcL2P9HQwwick6ACwPTGgAAAADfcFSuNYOtlWv1yrW2XKuvVGs/r0q1noG/b/UxRvATTUtLS0tLSwsAAADgTTdZSAdIz1EiEwAAAABJRU5ErkJggg=="
      }
    ]
  }